# WaveFront *.obj file (generated by CINEMA 4D)

g GreebleWall
usemtl White
v 262.47597 3.40273 170.79803
v 262.47597 3.40273 173.29803
v 262.47597 3.40273 175.79803
v 262.47597 28.40273 170.79803
v 262.47597 28.40273 173.29803
v 262.47597 28.40273 175.79803
v 262.47597 53.40273 170.79803
v 262.47597 53.40273 173.29803
v 262.47597 53.40273 175.79803
v 262.47597 78.40273 170.79803
v 262.47597 78.40273 173.29803
v 262.47597 78.40273 175.79803
v 262.47597 103.40273 170.79803
v 262.47597 103.40273 173.29803
v 262.47597 103.40273 175.79803
v 262.47597 128.40273 170.79803
v 262.47597 128.40273 173.29803
v 262.47597 128.40273 175.79803
v 262.47597 153.40273 170.79803
v 262.47597 153.40273 173.29803
v 262.47597 153.40273 175.79803
v 262.47597 178.40273 170.79803
v 262.47597 178.40273 173.29803
v 262.47597 178.40273 175.79803
v 262.47597 203.40273 170.79803
v 262.47597 203.40273 173.29803
v 262.47597 203.40273 175.79803
v 212.47597 203.40273 170.79803
v 212.47597 203.40273 173.29803
v 212.47597 203.40273 175.79803
v 162.47597 203.40273 170.79803
v 162.47597 203.40273 173.29803
v 162.47597 203.40273 175.79803
v 112.47597 203.40273 170.79803
v 112.47597 203.40273 173.29803
v 112.47597 203.40273 175.79803
v 62.47597 203.40273 170.79803
v 62.47597 203.40273 173.29803
v 62.47597 203.40273 175.79803
v 12.47597 203.40273 170.79803
v 12.47597 203.40273 173.29803
v 12.47597 203.40273 175.79803
v -37.52403 203.40273 170.79803
v -37.52403 203.40273 173.29803
v -37.52403 203.40273 175.79803
v -87.52403 203.40273 170.79803
v -87.52403 203.40273 173.29803
v -87.52403 203.40273 175.79803
v -137.52403 203.40273 170.79803
v -137.52403 203.40273 173.29803
v -137.52403 203.40273 175.79803
v -137.52403 178.40273 170.79803
v -137.52403 178.40273 173.29803
v -137.52403 178.40273 175.79803
v -137.52403 153.40273 170.79803
v -137.52403 153.40273 173.29803
v -137.52403 153.40273 175.79803
v -137.52403 128.40273 170.79803
v -137.52403 128.40273 173.29803
v -137.52403 128.40273 175.79803
v -137.52403 103.40273 170.79803
v -137.52403 103.40273 173.29803
v -137.52403 103.40273 175.79803
v -137.52403 78.40273 170.79803
v -137.52403 78.40273 173.29803
v -137.52403 78.40273 175.79803
v -137.52403 53.40273 170.79803
v -137.52403 53.40273 173.29803
v -137.52403 53.40273 175.79803
v -137.52403 28.40273 170.79803
v -137.52403 28.40273 173.29803
v -137.52403 28.40273 175.79803
v -137.52403 3.40273 170.79803
v -137.52403 3.40273 173.29803
v -137.52403 3.40273 175.79803
v -87.52403 3.40273 170.79803
v -87.52403 3.40273 173.29803
v -87.52403 3.40273 175.79803
v -37.52403 3.40273 170.79803
v -37.52403 3.40273 173.29803
v -37.52403 3.40273 175.79803
v 12.47597 3.40273 170.79803
v 12.47597 3.40273 173.29803
v 12.47597 3.40273 175.79803
v 62.47597 3.40273 170.79803
v 62.47597 3.40273 173.29803
v 62.47597 3.40273 175.79803
v 112.47597 3.40273 170.79803
v 112.47597 3.40273 173.29803
v 112.47597 3.40273 175.79803
v 162.47597 3.40273 170.79803
v 162.47597 3.40273 173.29803
v 162.47597 3.40273 175.79803
v 212.47597 3.40273 170.79803
v 212.47597 3.40273 173.29803
v 212.47597 3.40273 175.79803
v 212.47597 28.40273 175.79803
v 162.47597 28.40273 175.79803
v 112.47597 28.40273 175.79803
v 62.47597 28.40273 176.89803
v 12.47597 28.40273 175.79803
v -37.52403 28.40273 175.79803
v -87.52403 28.40273 175.79803
v 212.47597 53.40273 175.79803
v 162.47597 53.40273 176.89803
v 112.47597 53.40273 175.79803
v 62.47597 53.40273 175.79803
v 12.47597 53.40273 175.79803
v -37.52403 53.40273 176.89803
v -87.52403 53.40273 175.79803
v 212.47597 78.40273 175.79803
v 162.47597 78.40273 176.89803
v 112.47597 78.40273 175.79803
v 62.47597 78.40273 175.79803
v 12.47597 78.40273 175.79803
v -37.52403 78.40273 176.89803
v -87.52403 78.40273 175.79803
v 212.47597 103.40273 175.79803
v 162.47597 103.40273 176.89803
v 112.47597 103.40273 175.79803
v 62.47597 103.40273 175.79803
v 12.47597 103.40273 175.79803
v -37.52403 103.40273 176.89803
v -87.52403 103.40273 175.79803
v 212.47597 128.40273 175.79803
v 162.47597 128.40273 176.89803
v 112.47597 128.40273 175.79803
v 62.47597 128.40273 175.79803
v 12.47597 128.40273 175.79803
v -37.52403 128.40273 176.89803
v -87.52403 128.40273 175.79803
v 212.47597 153.40273 175.79803
v 162.47597 153.40273 176.89803
v 112.47597 153.40273 175.79803
v 62.47597 153.40273 175.79803
v 12.47597 153.40273 175.79803
v -37.52403 153.40273 176.89803
v -87.52403 153.40273 175.79803
v 212.47597 178.40273 175.79803
v 162.47597 178.40273 176.89803
v 112.47597 178.40273 175.79803
v 62.47597 178.40273 175.79803
v 12.47597 178.40273 175.79803
v -37.52403 178.40273 176.89803
v -87.52403 178.40273 175.79803
v -87.52403 28.40273 170.79803
v -37.52403 28.40273 170.79803
v 12.47597 28.40273 170.79803
v 62.47597 28.40273 170.79803
v 112.47597 28.40273 170.79803
v 162.47597 28.40273 170.79803
v 212.47597 28.40273 170.79803
v -87.52403 53.40273 170.79803
v -37.52403 53.40273 170.79803
v 12.47597 53.40273 170.79803
v 62.47597 53.40273 170.79803
v 112.47597 53.40273 170.79803
v 162.47597 53.40273 170.79803
v 212.47597 53.40273 170.79803
v -87.52403 78.40273 170.79803
v -37.52403 78.40273 170.79803
v 12.47597 78.40273 170.79803
v 62.47597 78.40273 170.79803
v 112.47597 78.40273 170.79803
v 162.47597 78.40273 170.79803
v 212.47597 78.40273 170.79803
v -87.52403 103.40273 170.79803
v -37.52403 103.40273 170.79803
v 12.47597 103.40273 170.79803
v 62.47597 103.40273 170.79803
v 112.47597 103.40273 170.79803
v 162.47597 103.40273 170.79803
v 212.47597 103.40273 170.79803
v -87.52403 128.40273 170.79803
v -37.52403 128.40273 170.79803
v 12.47597 128.40273 170.79803
v 62.47597 128.40273 170.79803
v 112.47597 128.40273 170.79803
v 162.47597 128.40273 170.79803
v 212.47597 128.40273 170.79803
v -87.52403 153.40273 170.79803
v -37.52403 153.40273 170.79803
v 12.47597 153.40273 170.79803
v 62.47597 153.40273 170.79803
v 112.47597 153.40273 170.79803
v 162.47597 153.40273 170.79803
v 212.47597 153.40273 170.79803
v -87.52403 178.40273 170.79803
v -37.52403 178.40273 170.79803
v 12.47597 178.40273 170.79803
v 62.47597 178.40273 170.79803
v 112.47597 178.40273 170.79803
v 162.47597 178.40273 170.79803
v 212.47597 178.40273 170.79803
v 261.47597 105.020764 175.79803
v 261.47597 128.40273 175.79803
v 261.47597 153.40273 175.79803
v 261.47597 178.40273 175.79803
v 261.47597 202.40273 175.79803
v 213.47597 202.40273 175.79803
v 213.47597 129.020764 175.79803
v 213.47597 153.40273 175.79803
v 213.47597 178.40273 175.79803
v -88.52403 202.40273 175.79803
v -136.52403 202.40273 175.79803
v -136.52403 178.40273 175.79803
v -136.52403 153.40273 175.79803
v -136.52403 128.40273 175.79803
v -136.52403 105.020764 175.79803
v -88.52403 129.020764 175.79803
v -88.52403 153.40273 175.79803
v -88.52403 178.40273 175.79803
v 260.37597 106.800601 176.89803
v 260.37597 128.40273 176.89803
v 260.37597 153.40273 176.89803
v 260.37597 178.40273 176.89803
v 260.37597 201.30273 176.89803
v 214.57597 201.30273 176.89803
v 214.57597 129.700601 176.89803
v 214.57597 153.40273 176.89803
v 214.57597 178.40273 176.89803
v -89.62403 201.30273 176.89803
v -135.42403 201.30273 176.89803
v -135.42403 178.40273 176.89803
v -135.42403 153.40273 176.89803
v -135.42403 128.40273 176.89803
v -135.42403 106.800601 176.89803
v -89.62403 129.700601 176.89803
v -89.62403 153.40273 176.89803
v -89.62403 178.40273 176.89803
v 261.47597 4.40273 175.79803
v 261.47597 28.40273 175.79803
v 261.47597 53.40273 175.79803
v 261.47597 78.40273 175.79803
v 261.47597 102.784696 175.79803
v 213.47597 4.40273 175.79803
v 213.47597 28.40273 175.79803
v 213.47597 53.40273 175.79803
v 213.47597 78.40273 175.79803
v 213.47597 103.40273 175.79803
v 213.47597 126.784696 175.79803
v -136.52403 102.784696 175.79803
v -136.52403 78.40273 175.79803
v -136.52403 53.40273 175.79803
v -136.52403 28.40273 175.79803
v -136.52403 4.40273 175.79803
v -88.52403 4.40273 175.79803
v -88.52403 28.40273 175.79803
v -88.52403 53.40273 175.79803
v -88.52403 78.40273 175.79803
v -88.52403 103.40273 175.79803
v -88.52403 126.784696 175.79803
v 260.37597 5.50273 176.89803
v 260.37597 28.40273 176.89803
v 260.37597 53.40273 176.89803
v 260.37597 78.40273 176.89803
v 260.37597 102.104859 176.89803
v 214.57597 5.50273 176.89803
v 214.57597 28.40273 176.89803
v 214.57597 53.40273 176.89803
v 214.57597 78.40273 176.89803
v 214.57597 103.40273 176.89803
v 214.57597 125.004859 176.89803
v -135.42403 102.104859 176.89803
v -135.42403 78.40273 176.89803
v -135.42403 53.40273 176.89803
v -135.42403 28.40273 176.89803
v -135.42403 5.50273 176.89803
v -89.62403 5.50273 176.89803
v -89.62403 28.40273 176.89803
v -89.62403 53.40273 176.89803
v -89.62403 78.40273 176.89803
v -89.62403 103.40273 176.89803
v -89.62403 125.004859 176.89803
v 163.47597 4.40273 175.79803
v 211.47597 4.40273 175.79803
v 211.47597 28.40273 175.79803
v 163.47597 27.784696 175.79803
v 211.47597 51.784696 175.79803
v -86.52403 4.40273 175.79803
v -38.52403 4.40273 175.79803
v -38.52403 27.784696 175.79803
v -86.52403 28.40273 175.79803
v -86.52403 51.784696 175.79803
v 164.57597 5.50273 176.89803
v 210.37597 5.50273 176.89803
v 210.37597 28.40273 176.89803
v 164.57597 27.104859 176.89803
v 210.37597 50.004859 176.89803
v -85.42403 5.50273 176.89803
v -39.62403 5.50273 176.89803
v -39.62403 27.104859 176.89803
v -85.42403 28.40273 176.89803
v -85.42403 50.004859 176.89803
v 211.47597 202.40273 175.79803
v 162.47597 202.40273 175.79803
v 113.47597 202.40273 175.79803
v 113.47597 4.40273 175.79803
v 161.47597 4.40273 175.79803
v 161.47597 29.020764 175.79803
v 113.47597 28.40273 175.79803
v 211.47597 54.020764 175.79803
v 113.47597 53.40273 175.79803
v 211.47597 78.40273 175.79803
v 113.47597 78.40273 175.79803
v 211.47597 103.40273 175.79803
v 113.47597 103.40273 175.79803
v 211.47597 128.40273 175.79803
v 113.47597 128.40273 175.79803
v 211.47597 153.40273 175.79803
v 113.47597 153.40273 175.79803
v 211.47597 178.40273 175.79803
v 113.47597 178.40273 175.79803
v 11.47597 202.40273 175.79803
v -37.52403 202.40273 175.79803
v -86.52403 202.40273 175.79803
v -36.52403 4.40273 175.79803
v 11.47597 4.40273 175.79803
v 11.47597 28.40273 175.79803
v -36.52403 29.020764 175.79803
v 11.47597 53.40273 175.79803
v -86.52403 54.020764 175.79803
v 11.47597 78.40273 175.79803
v -86.52403 78.40273 175.79803
v 11.47597 103.40273 175.79803
v -86.52403 103.40273 175.79803
v 11.47597 128.40273 175.79803
v -86.52403 128.40273 175.79803
v 11.47597 153.40273 175.79803
v -86.52403 153.40273 175.79803
v 11.47597 178.40273 175.79803
v -86.52403 178.40273 175.79803
v 210.37597 201.30273 176.89803
v 162.47597 201.30273 176.89803
v 114.57597 201.30273 176.89803
v 114.57597 5.50273 176.89803
v 160.37597 5.50273 176.89803
v 160.37597 29.700601 176.89803
v 114.57597 28.40273 176.89803
v 210.37597 54.700601 176.89803
v 114.57597 53.40273 176.89803
v 210.37597 78.40273 176.89803
v 114.57597 78.40273 176.89803
v 210.37597 103.40273 176.89803
v 114.57597 103.40273 176.89803
v 210.37597 128.40273 176.89803
v 114.57597 128.40273 176.89803
v 210.37597 153.40273 176.89803
v 114.57597 153.40273 176.89803
v 210.37597 178.40273 176.89803
v 114.57597 178.40273 176.89803
v 10.37597 201.30273 176.89803
v -37.52403 201.30273 176.89803
v -85.42403 201.30273 176.89803
v -35.42403 5.50273 176.89803
v 10.37597 5.50273 176.89803
v 10.37597 28.40273 176.89803
v -35.42403 29.700601 176.89803
v 10.37597 53.40273 176.89803
v -85.42403 54.700601 176.89803
v 10.37597 78.40273 176.89803
v -85.42403 78.40273 176.89803
v 10.37597 103.40273 176.89803
v -85.42403 103.40273 176.89803
v 10.37597 128.40273 176.89803
v -85.42403 128.40273 176.89803
v 10.37597 153.40273 176.89803
v -85.42403 153.40273 176.89803
v 10.37597 178.40273 176.89803
v -85.42403 178.40273 176.89803
v 13.47597 4.40273 175.79803
v 62.47597 4.40273 175.79803
v 111.47597 4.40273 175.79803
v 111.47597 27.784696 175.79803
v 13.47597 27.784696 175.79803
v 62.47597 52.284696 175.79803
v 14.57597 5.50273 176.89803
v 62.47597 5.50273 176.89803
v 110.37597 5.50273 176.89803
v 110.37597 27.104859 176.89803
v 14.57597 27.104859 176.89803
v 62.47597 51.054859 176.89803
v 111.47597 30.020764 175.79803
v 13.47597 30.020764 175.79803
v 111.47597 53.40273 175.79803
v 62.47597 54.520764 175.79803
v 13.47597 53.40273 175.79803
v 111.47597 77.40273 175.79803
v 62.47597 77.40273 175.79803
v 13.47597 77.40273 175.79803
v 110.37597 31.800601 176.89803
v 14.57597 31.800601 176.89803
v 110.37597 53.40273 176.89803
v 62.47597 55.750601 176.89803
v 14.57597 53.40273 176.89803
v 110.37597 76.30273 176.89803
v 62.47597 76.30273 176.89803
v 14.57597 76.30273 176.89803
v 111.47597 79.40273 175.79803
v 63.47597 79.40273 175.79803
v 63.47597 102.40273 175.79803
v 111.47597 102.40273 175.79803
v 111.47597 104.40273 175.79803
v 63.47597 104.40273 175.79803
v 63.47597 127.40273 175.79803
v 111.47597 127.40273 175.79803
v 111.47597 129.40273 175.79803
v 63.47597 129.40273 175.79803
v 63.47597 152.40273 175.79803
v 111.47597 152.40273 175.79803
v 111.47597 154.40273 175.79803
v 63.47597 154.40273 175.79803
v 63.47597 177.40273 175.79803
v 111.47597 177.40273 175.79803
v 111.47597 179.40273 175.79803
v 63.47597 179.40273 175.79803
v 63.47597 202.40273 175.79803
v 111.47597 202.40273 175.79803
v 61.47597 79.40273 175.79803
v 13.47597 79.40273 175.79803
v 13.47597 102.40273 175.79803
v 61.47597 102.40273 175.79803
v 61.47597 104.40273 175.79803
v 13.47597 104.40273 175.79803
v 13.47597 127.40273 175.79803
v 61.47597 127.40273 175.79803
v 61.47597 129.40273 175.79803
v 13.47597 129.40273 175.79803
v 13.47597 152.40273 175.79803
v 61.47597 152.40273 175.79803
v 61.47597 154.40273 175.79803
v 13.47597 154.40273 175.79803
v 13.47597 177.40273 175.79803
v 61.47597 177.40273 175.79803
v 61.47597 179.40273 175.79803
v 13.47597 179.40273 175.79803
v 13.47597 202.40273 175.79803
v 61.47597 202.40273 175.79803
v 110.37597 80.50273 176.89803
v 64.57597 80.50273 176.89803
v 64.57597 101.30273 176.89803
v 110.37597 101.30273 176.89803
v 110.37597 105.50273 176.89803
v 64.57597 105.50273 176.89803
v 64.57597 126.30273 176.89803
v 110.37597 126.30273 176.89803
v 110.37597 130.50273 176.89803
v 64.57597 130.50273 176.89803
v 64.57597 151.30273 176.89803
v 110.37597 151.30273 176.89803
v 110.37597 155.50273 176.89803
v 64.57597 155.50273 176.89803
v 64.57597 176.30273 176.89803
v 110.37597 176.30273 176.89803
v 110.37597 180.50273 176.89803
v 64.57597 180.50273 176.89803
v 64.57597 201.30273 176.89803
v 110.37597 201.30273 176.89803
v 60.37597 80.50273 176.89803
v 14.57597 80.50273 176.89803
v 14.57597 101.30273 176.89803
v 60.37597 101.30273 176.89803
v 60.37597 105.50273 176.89803
v 14.57597 105.50273 176.89803
v 14.57597 126.30273 176.89803
v 60.37597 126.30273 176.89803
v 60.37597 130.50273 176.89803
v 14.57597 130.50273 176.89803
v 14.57597 151.30273 176.89803
v 60.37597 151.30273 176.89803
v 60.37597 155.50273 176.89803
v 14.57597 155.50273 176.89803
v 14.57597 176.30273 176.89803
v 60.37597 176.30273 176.89803
v 60.37597 180.50273 176.89803
v 14.57597 180.50273 176.89803
v 14.57597 201.30273 176.89803
v 60.37597 201.30273 176.89803
v 163.47597 104.40273 176.89803
v 163.47597 128.40273 176.89803
v 163.47597 153.40273 176.89803
v 163.47597 178.40273 176.89803
v 209.37597 200.30273 176.89803
v 163.47597 200.30273 176.89803
v 209.37597 104.40273 176.89803
v 209.37597 128.40273 176.89803
v 209.37597 153.40273 176.89803
v 209.37597 178.40273 176.89803
v -38.52403 104.40273 176.89803
v -38.52403 128.40273 176.89803
v -38.52403 153.40273 176.89803
v -38.52403 178.40273 176.89803
v -38.52403 200.30273 176.89803
v -84.42403 200.30273 176.89803
v -84.42403 104.40273 176.89803
v -84.42403 128.40273 176.89803
v -84.42403 153.40273 176.89803
v -84.42403 178.40273 176.89803
v 164.57597 105.50273 177.99803
v 164.57597 128.40273 177.99803
v 164.57597 153.40273 177.99803
v 164.57597 178.40273 177.99803
v 208.27597 199.20273 177.99803
v 164.57597 199.20273 177.99803
v 208.27597 105.50273 177.99803
v 208.27597 128.40273 177.99803
v 208.27597 153.40273 177.99803
v 208.27597 178.40273 177.99803
v -39.62403 105.50273 177.99803
v -39.62403 128.40273 177.99803
v -39.62403 153.40273 177.99803
v -39.62403 178.40273 177.99803
v -39.62403 199.20273 177.99803
v -83.32403 199.20273 177.99803
v -83.32403 105.50273 177.99803
v -83.32403 128.40273 177.99803
v -83.32403 153.40273 177.99803
v -83.32403 178.40273 177.99803

vt 0 1 0
vt 1 0 0
vt 0 0 0
vt 1 0.5 0
vt 0 0.5 0
vt 0 0 0
vt 1 1 0
vt 0 1 0
vt 0.125 1 0
vt 0.125 0 0
vt 0.125 0.5 0
vt 0.125 0 0
vt 0.125 1 0
vt 0.25 1 0
vt 0.25 0 0
vt 0.25 0.5 0
vt 0.25 0 0
vt 0.25 1 0
vt 0.375 1 0
vt 0.375 0 0
vt 0.375 0.5 0
vt 0.375 0 0
vt 0.375 1 0
vt 0.5 1 0
vt 0.5 0 0
vt 0.5 0.5 0
vt 0.5 0 0
vt 0.5 1 0
vt 0.625 1 0
vt 0.625 0 0
vt 0.625 0.5 0
vt 0.625 0 0
vt 0.625 1 0
vt 0.75 1 0
vt 0.75 0 0
vt 0.75 0.5 0
vt 0.75 0 0
vt 0.75 1 0
vt 0.875 1 0
vt 0.875 0 0
vt 0.875 0.5 0
vt 0.875 0 0
vt 0.875 1 0
vt 1 1 0
vt 0 0 0
vt 1 0 0
vt 0 0.5 0
vt 1 0.5 0
vt 1 0 0
vt 0 1 0
vt 1 1 0
vt 1 0.875 0
vt 0.125 0 0
vt 0.125 0.5 0
vt 1 0.125 0
vt 0.125 1 0
vt 1 0.75 0
vt 0.25 0 0
vt 0.25 0.5 0
vt 1 0.25 0
vt 0.25 1 0
vt 1 0.625 0
vt 0.375 0 0
vt 0.375 0.5 0
vt 1 0.375 0
vt 0.375 1 0
vt 1 0.5 0
vt 0.5 0 0
vt 0.5 0.5 0
vt 1 0.5 0
vt 0.5 1 0
vt 1 0.375 0
vt 0.625 0 0
vt 0.625 0.5 0
vt 1 0.625 0
vt 0.625 1 0
vt 1 0.25 0
vt 0.75 0 0
vt 0.75 0.5 0
vt 1 0.75 0
vt 0.75 1 0
vt 1 0.125 0
vt 0.875 0 0
vt 0.875 0.5 0
vt 1 0.875 0
vt 0.875 1 0
vt 1 0 0
vt 0 0 0
vt 0 0.5 0
vt 1 0.5 0
vt 1 1 0
vt 0 1 0
vt 0.875 0 0
vt 0.125 0 0
vt 0.125 0.5 0
vt 0.875 1 0
vt 0.125 1 0
vt 0.75 0 0
vt 0.25 0 0
vt 0.25 0.5 0
vt 0.75 1 0
vt 0.25 1 0
vt 0.625 0 0
vt 0.375 0 0
vt 0.375 0.5 0
vt 0.625 1 0
vt 0.375 1 0
vt 0.5 0 0
vt 0.5 0.5 0
vt 0.5 1 0
vt 0.375 0 0
vt 0.625 0 0
vt 0.625 0.5 0
vt 0.375 1 0
vt 0.625 1 0
vt 0.25 0 0
vt 0.75 0 0
vt 0.75 0.5 0
vt 0.25 1 0
vt 0.75 1 0
vt 0.125 0 0
vt 0.875 0 0
vt 0.875 0.5 0
vt 0.125 1 0
vt 0.875 1 0
vt 0 0 0
vt 1 0 0
vt 0 0.5 0
vt 1 0.5 0
vt 0 1 0
vt 1 1 0
vt 0 0.125 0
vt 0.125 0 0
vt 0.125 0.5 0
vt 0 0.875 0
vt 0.125 1 0
vt 0 0.25 0
vt 0.25 0 0
vt 0.25 0.5 0
vt 0 0.75 0
vt 0.25 1 0
vt 0 0.375 0
vt 0.375 0 0
vt 0.375 0.5 0
vt 0 0.625 0
vt 0.375 1 0
vt 0 0.5 0
vt 0.5 0 0
vt 0.5 0.5 0
vt 0 0.5 0
vt 0.5 1 0
vt 0 0.625 0
vt 0.625 0 0
vt 0.625 0.5 0
vt 0 0.375 0
vt 0.625 1 0
vt 0 0.75 0
vt 0.75 0 0
vt 0.75 0.5 0
vt 0 0.25 0
vt 0.75 1 0
vt 0 0.875 0
vt 0.875 0 0
vt 0.875 0.5 0
vt 0 0.125 0
vt 0.875 1 0
vt 0.125 0.125 0
vt 0.125 0.25 0
vt 0.125 0.375 0
vt 0.125 0.5 0
vt 0.125 0.625 0
vt 0.125 0.75 0
vt 0.125 0.875 0
vt 0.25 0.125 0
vt 0.25 0.25 0
vt 0.25 0.375 0
vt 0.25 0.5 0
vt 0.25 0.625 0
vt 0.25 0.75 0
vt 0.25 0.875 0
vt 0.375 0.125 0
vt 0.375 0.25 0
vt 0.375 0.375 0
vt 0.375 0.5 0
vt 0.375 0.625 0
vt 0.375 0.75 0
vt 0.375 0.875 0
vt 0.5 0.125 0
vt 0.5 0.25 0
vt 0.5 0.375 0
vt 0.5 0.5 0
vt 0.5 0.625 0
vt 0.5 0.75 0
vt 0.5 0.875 0
vt 0.625 0.125 0
vt 0.625 0.25 0
vt 0.625 0.375 0
vt 0.625 0.5 0
vt 0.625 0.625 0
vt 0.625 0.75 0
vt 0.625 0.875 0
vt 0.75 0.125 0
vt 0.75 0.25 0
vt 0.75 0.375 0
vt 0.75 0.5 0
vt 0.75 0.625 0
vt 0.75 0.75 0
vt 0.75 0.875 0
vt 0.875 0.125 0
vt 0.875 0.25 0
vt 0.875 0.375 0
vt 0.875 0.5 0
vt 0.875 0.625 0
vt 0.875 0.75 0
vt 0.875 0.875 0
vt 0.125 0.125 0
vt 0.125 0.25 0
vt 0.125 0.375 0
vt 0.125 0.5 0
vt 0.125 0.625 0
vt 0.125 0.75 0
vt 0.125 0.875 0
vt 0.25 0.125 0
vt 0.25 0.25 0
vt 0.25 0.375 0
vt 0.25 0.5 0
vt 0.25 0.625 0
vt 0.25 0.75 0
vt 0.25 0.875 0
vt 0.375 0.125 0
vt 0.375 0.25 0
vt 0.375 0.375 0
vt 0.375 0.5 0
vt 0.375 0.625 0
vt 0.375 0.75 0
vt 0.375 0.875 0
vt 0.5 0.125 0
vt 0.5 0.25 0
vt 0.5 0.375 0
vt 0.5 0.5 0
vt 0.5 0.625 0
vt 0.5 0.75 0
vt 0.5 0.875 0
vt 0.625 0.125 0
vt 0.625 0.25 0
vt 0.625 0.375 0
vt 0.625 0.5 0
vt 0.625 0.625 0
vt 0.625 0.75 0
vt 0.625 0.875 0
vt 0.75 0.125 0
vt 0.75 0.25 0
vt 0.75 0.375 0
vt 0.75 0.5 0
vt 0.75 0.625 0
vt 0.75 0.75 0
vt 0.75 0.875 0
vt 0.875 0.125 0
vt 0.875 0.25 0
vt 0.875 0.375 0
vt 0.875 0.5 0
vt 0.875 0.625 0
vt 0.875 0.75 0
vt 0.875 0.875 0
vt 0.506545 0.003273 0
vt 0.623 0.002 0
vt 0.627 0.002 0
vt 0.752 0.002 0
vt 0.748 0.002 0
vt 0.877 0.002 0
vt 0.873 0.002 0
vt 0.997 0.003 0
vt 0.997 0.122 0
vt 0.624005 0.123011 0
vt 0.627618 0.122382 0
vt 0.752 0.123 0
vt 0.748 0.123 0
vt 0.877 0.123 0
vt 0.873 0.123 0
vt 0.997 0.878 0
vt 0.997 0.997 0
vt 0.877 0.998 0
vt 0.873 0.998 0
vt 0.752 0.998 0
vt 0.748 0.998 0
vt 0.623 0.998 0
vt 0.627 0.998 0
vt 0.506545 0.996727 0
vt 0.624005 0.876989 0
vt 0.627618 0.877618 0
vt 0.752 0.877 0
vt 0.748 0.877 0
vt 0.877 0.877 0
vt 0.873 0.877 0
vt 0.513596 0.006844 0
vt 0.62084 0.004288 0
vt 0.629175 0.004164 0
vt 0.754181 0.004181 0
vt 0.745813 0.004187 0
vt 0.8792 0.004218 0
vt 0.870819 0.004181 0
vt 0.9937 0.006273 0
vt 0.9937 0.118728 0
vt 0.622934 0.120833 0
vt 0.630498 0.119502 0
vt 0.754181 0.120819 0
vt 0.745813 0.120802 0
vt 0.8792 0.120782 0
vt 0.870819 0.120819 0
vt 0.9937 0.881273 0
vt 0.9937 0.993728 0
vt 0.8792 0.995782 0
vt 0.870819 0.995819 0
vt 0.754181 0.995819 0
vt 0.745813 0.995813 0
vt 0.62084 0.995712 0
vt 0.629175 0.995836 0
vt 0.513596 0.993156 0
vt 0.622934 0.879168 0
vt 0.630498 0.880498 0
vt 0.754181 0.879181 0
vt 0.745813 0.879198 0
vt 0.8792 0.879218 0
vt 0.870819 0.879181 0
vt 0.003 0.003 0
vt 0.127 0.002 0
vt 0.123 0.002 0
vt 0.252 0.002 0
vt 0.248 0.002 0
vt 0.377 0.002 0
vt 0.373 0.002 0
vt 0.500995 0.001989 0
vt 0.497382 0.002618 0
vt 0.003 0.122 0
vt 0.127 0.123 0
vt 0.123 0.123 0
vt 0.252 0.123 0
vt 0.248 0.123 0
vt 0.377 0.123 0
vt 0.373 0.123 0
vt 0.502 0.123 0
vt 0.498 0.123 0
vt 0.618455 0.121727 0
vt 0.500995 0.998011 0
vt 0.497382 0.997382 0
vt 0.377 0.998 0
vt 0.373 0.998 0
vt 0.252 0.998 0
vt 0.248 0.998 0
vt 0.127 0.998 0
vt 0.123 0.998 0
vt 0.003 0.997 0
vt 0.003 0.878 0
vt 0.127 0.877 0
vt 0.123 0.877 0
vt 0.252 0.877 0
vt 0.248 0.877 0
vt 0.377 0.877 0
vt 0.373 0.877 0
vt 0.502 0.877 0
vt 0.498 0.877 0
vt 0.618455 0.878273 0
vt 0.0063 0.006273 0
vt 0.129181 0.004181 0
vt 0.1208 0.004218 0
vt 0.254181 0.004181 0
vt 0.245819 0.004181 0
vt 0.379187 0.004198 0
vt 0.370819 0.004181 0
vt 0.502066 0.004168 0
vt 0.494502 0.005498 0
vt 0.0063 0.118728 0
vt 0.129181 0.120819 0
vt 0.1208 0.120782 0
vt 0.254181 0.120819 0
vt 0.245819 0.120819 0
vt 0.379187 0.120813 0
vt 0.370819 0.120819 0
vt 0.50416 0.120712 0
vt 0.495825 0.120836 0
vt 0.611404 0.118156 0
vt 0.502066 0.995832 0
vt 0.494502 0.994502 0
vt 0.379187 0.995802 0
vt 0.370819 0.995819 0
vt 0.254181 0.995819 0
vt 0.245819 0.995819 0
vt 0.129181 0.995819 0
vt 0.1208 0.995782 0
vt 0.0063 0.993728 0
vt 0.0063 0.881273 0
vt 0.129181 0.879181 0
vt 0.1208 0.879218 0
vt 0.254181 0.879181 0
vt 0.245819 0.879181 0
vt 0.379187 0.879187 0
vt 0.370819 0.879181 0
vt 0.50416 0.879288 0
vt 0.495825 0.879164 0
vt 0.611404 0.881844 0
vt 0.003 0.247 0
vt 0.003 0.128 0
vt 0.127 0.127 0
vt 0.123 0.127 0
vt 0.125995 0.248011 0
vt 0.122382 0.247382 0
vt 0.243455 0.128273 0
vt 0.003 0.872 0
vt 0.003 0.753 0
vt 0.125995 0.751989 0
vt 0.122382 0.752618 0
vt 0.127 0.873 0
vt 0.123 0.873 0
vt 0.243455 0.871727 0
vt 0.006294 0.243716 0
vt 0.006294 0.131267 0
vt 0.12916 0.129288 0
vt 0.120806 0.129201 0
vt 0.127066 0.245833 0
vt 0.119507 0.244483 0
vt 0.236403 0.131844 0
vt 0.006294 0.868733 0
vt 0.006294 0.756284 0
vt 0.127066 0.754168 0
vt 0.119507 0.755517 0
vt 0.12916 0.870712 0
vt 0.120806 0.870799 0
vt 0.236403 0.868156 0
vt 0.997 0.128 0
vt 0.999 0.251 0
vt 0.999 0.249 0
vt 0.997 0.372 0
vt 0.003 0.372 0
vt 0.003 0.253 0
vt 0.125 0.25 0
vt 0.123618 0.251382 0
vt 0.127 0.373 0
vt 0.123 0.373 0
vt 0.249005 0.126989 0
vt 0.252618 0.127618 0
vt 0.252 0.373 0
vt 0.248 0.373 0
vt 0.377 0.127 0
vt 0.373 0.127 0
vt 0.377 0.373 0
vt 0.373 0.373 0
vt 0.502 0.127 0
vt 0.498 0.127 0
vt 0.502 0.373 0
vt 0.498 0.373 0
vt 0.627 0.127 0
vt 0.623 0.127 0
vt 0.627 0.373 0
vt 0.623 0.373 0
vt 0.752 0.127 0
vt 0.748 0.127 0
vt 0.752 0.373 0
vt 0.748 0.373 0
vt 0.877 0.127 0
vt 0.873 0.127 0
vt 0.877 0.373 0
vt 0.873 0.373 0
vt 0.997 0.628 0
vt 0.999 0.751 0
vt 0.999 0.749 0
vt 0.997 0.872 0
vt 0.003 0.747 0
vt 0.003 0.628 0
vt 0.127 0.627 0
vt 0.123 0.627 0
vt 0.125 0.75 0
vt 0.123618 0.748618 0
vt 0.252 0.627 0
vt 0.248 0.627 0
vt 0.249005 0.873011 0
vt 0.252618 0.872382 0
vt 0.377 0.627 0
vt 0.373 0.627 0
vt 0.377 0.873 0
vt 0.373 0.873 0
vt 0.502 0.627 0
vt 0.498 0.627 0
vt 0.502 0.873 0
vt 0.498 0.873 0
vt 0.627 0.627 0
vt 0.623 0.627 0
vt 0.627 0.873 0
vt 0.623 0.873 0
vt 0.752 0.627 0
vt 0.748 0.627 0
vt 0.752 0.873 0
vt 0.748 0.873 0
vt 0.877 0.627 0
vt 0.873 0.627 0
vt 0.877 0.873 0
vt 0.873 0.873 0
vt 0.993763 0.131264 0
vt 0.9979 0.247927 0
vt 0.9979 0.252073 0
vt 0.993763 0.368736 0
vt 0.006306 0.368722 0
vt 0.006306 0.256261 0
vt 0.125 0.25 0
vt 0.122136 0.252876 0
vt 0.130548 0.255499 0
vt 0.12918 0.370831 0
vt 0.120794 0.370765 0
vt 0.247929 0.129142 0
vt 0.255449 0.130496 0
vt 0.254155 0.370809 0
vt 0.245844 0.370808 0
vt 0.379155 0.129191 0
vt 0.370839 0.129208 0
vt 0.379155 0.370809 0
vt 0.370845 0.370809 0
vt 0.504155 0.129191 0
vt 0.495845 0.129191 0
vt 0.504155 0.370809 0
vt 0.495845 0.370809 0
vt 0.629155 0.129191 0
vt 0.620845 0.129191 0
vt 0.629155 0.370809 0
vt 0.620845 0.370809 0
vt 0.754155 0.129191 0
vt 0.745845 0.129191 0
vt 0.754155 0.370809 0
vt 0.745845 0.370809 0
vt 0.879173 0.129227 0
vt 0.870845 0.129191 0
vt 0.879173 0.370773 0
vt 0.870845 0.370809 0
vt 0.993763 0.631264 0
vt 0.9979 0.752073 0
vt 0.9979 0.747927 0
vt 0.993763 0.868736 0
vt 0.006306 0.743739 0
vt 0.006306 0.631278 0
vt 0.12918 0.629169 0
vt 0.120794 0.629236 0
vt 0.125 0.75 0
vt 0.122136 0.747124 0
vt 0.130548 0.744501 0
vt 0.254155 0.629191 0
vt 0.245844 0.629192 0
vt 0.247929 0.870858 0
vt 0.255449 0.869504 0
vt 0.379155 0.629191 0
vt 0.370845 0.629191 0
vt 0.379155 0.870809 0
vt 0.370839 0.870792 0
vt 0.504155 0.629191 0
vt 0.495845 0.629191 0
vt 0.504155 0.870809 0
vt 0.495845 0.870809 0
vt 0.629155 0.629191 0
vt 0.620845 0.629191 0
vt 0.629155 0.870809 0
vt 0.620845 0.870809 0
vt 0.754155 0.629191 0
vt 0.745845 0.629191 0
vt 0.754155 0.870809 0
vt 0.745845 0.870809 0
vt 0.879173 0.629227 0
vt 0.870845 0.629191 0
vt 0.879173 0.870773 0
vt 0.870845 0.870809 0
vt 0.003 0.622 0
vt 0.001 0.501 0
vt 0.001 0.499 0
vt 0.003 0.378 0
vt 0.125995 0.376989 0
vt 0.122382 0.377618 0
vt 0.125995 0.623011 0
vt 0.122382 0.622382 0
vt 0.247205 0.501398 0
vt 0.247205 0.498603 0
vt 0.006231 0.618726 0
vt 0.002088 0.502062 0
vt 0.002088 0.497938 0
vt 0.006231 0.381275 0
vt 0.12706 0.379158 0
vt 0.119557 0.380514 0
vt 0.12706 0.620842 0
vt 0.119557 0.619486 0
vt 0.24415 0.502906 0
vt 0.24415 0.497094 0
vt 0.131545 0.378273 0
vt 0.131545 0.621727 0
vt 0.248 0.377 0
vt 0.252 0.377 0
vt 0.25 0.5 0
vt 0.252 0.623 0
vt 0.248 0.623 0
vt 0.373529 0.377941 0
vt 0.37 0.3775 0
vt 0.374 0.499 0
vt 0.374 0.501 0
vt 0.37 0.6225 0
vt 0.373529 0.622059 0
vt 0.138508 0.381843 0
vt 0.138508 0.618157 0
vt 0.24587 0.379312 0
vt 0.254068 0.379184 0
vt 0.25 0.5 0
vt 0.250651 0.501306 0
vt 0.255824 0.497097 0
vt 0.255824 0.502903 0
vt 0.250651 0.498694 0
vt 0.254068 0.620816 0
vt 0.24587 0.620688 0
vt 0.37195 0.381115 0
vt 0.364549 0.380283 0
vt 0.372953 0.497955 0
vt 0.372953 0.502045 0
vt 0.364549 0.619717 0
vt 0.37195 0.618885 0
vt 0.378 0.378 0
vt 0.378 0.497 0
vt 0.497 0.497 0
vt 0.497 0.378 0
vt 0.503 0.378 0
vt 0.503 0.497 0
vt 0.622 0.497 0
vt 0.622 0.378 0
vt 0.628 0.378 0
vt 0.628 0.497 0
vt 0.747 0.497 0
vt 0.747 0.378 0
vt 0.753 0.378 0
vt 0.753 0.497 0
vt 0.872 0.497 0
vt 0.872 0.378 0
vt 0.878 0.378 0
vt 0.878 0.497 0
vt 0.997 0.497 0
vt 0.997 0.378 0
vt 0.378 0.503 0
vt 0.378 0.622 0
vt 0.497 0.622 0
vt 0.497 0.503 0
vt 0.503 0.503 0
vt 0.503 0.622 0
vt 0.622 0.622 0
vt 0.622 0.503 0
vt 0.628 0.503 0
vt 0.628 0.622 0
vt 0.747 0.622 0
vt 0.747 0.503 0
vt 0.753 0.503 0
vt 0.753 0.622 0
vt 0.872 0.622 0
vt 0.872 0.503 0
vt 0.878 0.503 0
vt 0.878 0.622 0
vt 0.997 0.622 0
vt 0.997 0.503 0
vt 0.381281 0.381281 0
vt 0.381281 0.493719 0
vt 0.493719 0.493719 0
vt 0.493719 0.381281 0
vt 0.506281 0.381281 0
vt 0.506281 0.493719 0
vt 0.618719 0.493719 0
vt 0.618719 0.381281 0
vt 0.631281 0.381281 0
vt 0.631281 0.493719 0
vt 0.743719 0.493719 0
vt 0.743719 0.381281 0
vt 0.756281 0.381281 0
vt 0.756281 0.493719 0
vt 0.868719 0.493719 0
vt 0.868719 0.381281 0
vt 0.881281 0.381281 0
vt 0.881281 0.493719 0
vt 0.993719 0.493719 0
vt 0.993719 0.381281 0
vt 0.381281 0.506281 0
vt 0.381281 0.618719 0
vt 0.493719 0.618719 0
vt 0.493719 0.506281 0
vt 0.506281 0.506281 0
vt 0.506281 0.618719 0
vt 0.618719 0.618719 0
vt 0.618719 0.506281 0
vt 0.631281 0.506281 0
vt 0.631281 0.618719 0
vt 0.743719 0.618719 0
vt 0.743719 0.506281 0
vt 0.756281 0.506281 0
vt 0.756281 0.618719 0
vt 0.868719 0.618719 0
vt 0.868719 0.506281 0
vt 0.881281 0.506281 0
vt 0.881281 0.618719 0
vt 0.993719 0.618719 0
vt 0.993719 0.506281 0
vt 0.503121 0.246983 0
vt 0.627051 0.248018 0
vt 0.622949 0.248018 0
vt 0.752051 0.248018 0
vt 0.747949 0.248018 0
vt 0.877089 0.247947 0
vt 0.872949 0.248018 0
vt 0.990885 0.134194 0
vt 0.994814 0.244997 0
vt 0.507069 0.132208 0
vt 0.63107 0.131173 0
vt 0.61893 0.131173 0
vt 0.75607 0.131173 0
vt 0.74393 0.131173 0
vt 0.88112 0.131279 0
vt 0.86893 0.131173 0
vt 0.503121 0.753017 0
vt 0.627051 0.751982 0
vt 0.622949 0.751982 0
vt 0.752051 0.751982 0
vt 0.747949 0.751982 0
vt 0.877089 0.752053 0
vt 0.872949 0.751982 0
vt 0.994814 0.755003 0
vt 0.990885 0.865806 0
vt 0.507069 0.867792 0
vt 0.63107 0.868827 0
vt 0.61893 0.868827 0
vt 0.75607 0.868827 0
vt 0.74393 0.868827 0
vt 0.88112 0.868721 0
vt 0.86893 0.868827 0
vt 0.506555 0.243694 0
vt 0.629285 0.245858 0
vt 0.620693 0.245819 0
vt 0.754285 0.245858 0
vt 0.745715 0.245858 0
vt 0.879388 0.24567 0
vt 0.870715 0.245858 0
vt 0.987718 0.13739 0
vt 0.991421 0.241803 0
vt 0.510276 0.135497 0
vt 0.633156 0.133333 0
vt 0.616826 0.133372 0
vt 0.758156 0.133333 0
vt 0.741844 0.133333 0
vt 0.883261 0.133556 0
vt 0.866844 0.133333 0
vt 0.506555 0.756306 0
vt 0.629285 0.754142 0
vt 0.620693 0.754181 0
vt 0.754285 0.754142 0
vt 0.745715 0.754142 0
vt 0.879388 0.75433 0
vt 0.870715 0.754142 0
vt 0.991421 0.758197 0
vt 0.987718 0.86261 0
vt 0.510276 0.864503 0
vt 0.633156 0.866667 0
vt 0.616826 0.866628 0
vt 0.758156 0.866667 0
vt 0.741844 0.866667 0
vt 0.883261 0.866444 0
vt 0.866844 0.866667 0

f 4/10 5/11 2/5 1/3 
f 7/15 8/16 5/11 4/10 
f 10/20 11/21 8/16 7/15 
f 13/25 14/26 11/21 10/20 
f 16/30 17/31 14/26 13/25 
f 19/35 20/36 17/31 16/30 
f 22/40 23/41 20/36 19/35 
f 25/46 26/48 23/41 22/40 
f 5/11 6/13 3/8 2/5 
f 8/16 9/18 6/13 5/11 
f 11/21 12/23 9/18 8/16 
f 14/26 15/28 12/23 11/21 
f 17/31 18/33 15/28 14/26 
f 20/36 21/38 18/33 17/31 
f 23/41 24/43 21/38 20/36 
f 26/48 27/51 24/43 23/41 
f 28/53 29/54 26/47 25/45 
f 31/58 32/59 29/54 28/53 
f 34/63 35/64 32/59 31/58 
f 37/68 38/69 35/64 34/63 
f 40/73 41/74 38/69 37/68 
f 43/78 44/79 41/74 40/73 
f 46/83 47/84 44/79 43/78 
f 49/87 50/90 47/84 46/83 
f 29/54 30/56 27/50 26/47 
f 32/59 33/61 30/56 29/54 
f 35/64 36/66 33/61 32/59 
f 38/69 39/71 36/66 35/64 
f 41/74 42/76 39/71 38/69 
f 44/79 45/81 42/76 41/74 
f 47/84 48/86 45/81 44/79 
f 50/90 51/91 48/86 47/84 
f 52/94 53/95 50/89 49/88 
f 55/99 56/100 53/95 52/94 
f 58/104 59/105 56/100 55/99 
f 61/108 62/109 59/105 58/104 
f 64/112 65/113 62/109 61/108 
f 67/117 68/118 65/113 64/112 
f 70/122 71/123 68/118 67/117 
f 73/127 74/129 71/123 70/122 
f 53/95 54/97 51/92 50/89 
f 56/100 57/102 54/97 53/95 
f 59/105 60/107 57/102 56/100 
f 62/109 63/110 60/107 59/105 
f 65/113 66/115 63/110 62/109 
f 68/118 69/120 66/115 65/113 
f 71/123 72/125 69/120 68/118 
f 74/129 75/131 72/125 71/123 
f 76/133 77/134 74/128 73/126 
f 79/138 80/139 77/134 76/133 
f 82/143 83/144 80/139 79/138 
f 85/148 86/149 83/144 82/143 
f 88/153 89/154 86/149 85/148 
f 91/158 92/159 89/154 88/153 
f 94/163 95/164 92/159 91/158 
f 1/2 2/4 95/164 94/163 
f 77/134 78/136 75/130 74/128 
f 80/139 81/141 78/136 77/134 
f 83/144 84/146 81/141 80/139 
f 86/149 87/151 84/146 83/144 
f 89/154 90/156 87/151 86/149 
f 92/159 93/161 90/156 89/154 
f 95/164 96/166 93/161 92/159 
f 2/4 3/7 96/166 95/164 
f 254/365 259/374 258/372 253/363 
f 255/367 260/376 259/373 254/364 
f 256/369 261/378 260/375 255/366 
f 257/371 262/380 261/377 256/368 
f 263/381 262/379 257/370 
f 215/299 220/307 219/305 214/297 
f 216/301 221/309 220/306 215/298 
f 217/302 218/303 221/308 216/300 
f 287/418 288/420 285/415 286/416 
f 289/421 288/419 287/417 
f 342/513 112/182 105/175 340/509 
f 344/517 119/189 112/182 342/512 
f 506/740 500/731 499/729 505/738 
f 507/742 501/733 500/730 506/739 
f 508/744 502/735 501/732 507/741 
f 503/736 504/737 502/734 508/743 
f 338/504 339/507 336/501 337/502 
f 105/175 341/511 339/506 338/505 
f 112/182 343/515 341/510 105/175 
f 119/189 345/519 343/514 112/182 
f 126/196 347/523 345/518 119/189 
f 133/203 349/527 347/522 126/196 
f 140/210 351/531 349/526 133/203 
f 334/499 335/500 351/530 140/210 
f 380/582 100/170 378/579 379/580 
f 382/586 100/170 380/581 
f 396/612 394/608 393/603 
f 442/660 441/659 440/658 439/657 
f 446/664 445/663 444/662 443/661 
f 450/668 449/667 448/666 447/665 
f 454/672 453/671 452/670 451/669 
f 458/676 457/675 456/674 455/673 
f 100/170 381/584 377/577 378/578 
f 394/604 395/610 392/601 
f 397/614 398/616 394/607 
f 462/680 461/679 460/678 459/677 
f 466/684 465/683 464/682 463/681 
f 470/688 469/687 468/686 467/685 
f 474/692 473/691 472/690 471/689 
f 478/696 477/695 476/694 475/693 
f 357/539 358/541 355/536 356/537 
f 359/544 109/179 358/542 357/538 
f 361/548 116/186 109/179 359/543 
f 363/552 123/193 116/186 361/547 
f 365/556 130/200 123/193 363/551 
f 367/560 137/207 130/200 365/555 
f 369/564 144/214 137/207 367/559 
f 352/532 353/534 144/214 369/563 
f 292/425 293/427 290/422 291/423 
f 294/428 293/426 292/424 
f 116/186 362/550 360/546 109/179 
f 123/193 364/554 362/549 116/186 
f 510/747 516/756 515/754 509/745 
f 511/749 517/758 516/755 510/746 
f 512/751 518/760 517/757 511/748 
f 513/752 514/753 518/759 512/750 
f 270/393 267/389 268/390 269/391 
f 271/395 266/387 267/388 270/392 
f 272/397 265/385 266/386 271/394 
f 273/399 264/383 265/384 272/396 
f 274/400 264/382 273/398 
f 229/322 225/315 226/317 228/320 
f 230/324 224/313 225/314 229/321 
f 222/310 223/311 224/312 230/323 
f 70/121 146/216 76/132 73/126 
f 67/116 153/223 146/216 70/121 
f 64/111 160/230 153/223 67/116 
f 61/108 167/237 160/230 64/111 
f 58/103 174/244 167/237 61/108 
f 55/98 181/251 174/244 58/103 
f 52/93 188/258 181/251 55/98 
f 49/87 46/82 188/258 52/93 
f 146/216 147/217 79/137 76/132 
f 153/223 154/224 147/217 146/216 
f 160/230 161/231 154/224 153/223 
f 167/237 168/238 161/231 160/230 
f 174/244 175/245 168/238 167/237 
f 181/251 182/252 175/245 174/244 
f 188/258 189/259 182/252 181/251 
f 46/82 43/77 189/259 188/258 
f 147/217 148/218 82/142 79/137 
f 154/224 155/225 148/218 147/217 
f 161/231 162/232 155/225 154/224 
f 168/238 169/239 162/232 161/231 
f 175/245 176/246 169/239 168/238 
f 182/252 183/253 176/246 175/245 
f 189/259 190/260 183/253 182/252 
f 43/77 40/72 190/260 189/259 
f 148/218 149/219 85/147 82/142 
f 155/225 156/226 149/219 148/218 
f 162/232 163/233 156/226 155/225 
f 169/239 170/240 163/233 162/232 
f 176/246 177/247 170/240 169/239 
f 183/253 184/254 177/247 176/246 
f 190/260 191/261 184/254 183/253 
f 40/72 37/67 191/261 190/260 
f 149/219 150/220 88/152 85/147 
f 156/226 157/227 150/220 149/219 
f 163/233 164/234 157/227 156/226 
f 170/240 171/241 164/234 163/233 
f 177/247 178/248 171/241 170/240 
f 184/254 185/255 178/248 177/247 
f 191/261 192/262 185/255 184/254 
f 37/67 34/62 192/262 191/261 
f 150/220 151/221 91/157 88/152 
f 157/227 158/228 151/221 150/220 
f 164/234 165/235 158/228 157/227 
f 171/241 172/242 165/235 164/234 
f 178/248 179/249 172/242 171/241 
f 185/255 186/256 179/249 178/248 
f 192/262 193/263 186/256 185/255 
f 34/62 31/57 193/263 192/262 
f 151/221 152/222 94/162 91/157 
f 158/228 159/229 152/222 151/221 
f 165/235 166/236 159/229 158/228 
f 172/242 173/243 166/236 165/235 
f 179/249 180/250 173/243 172/242 
f 186/256 187/257 180/250 179/249 
f 193/263 194/264 187/257 186/256 
f 31/57 28/52 194/264 193/263 
f 152/222 4/9 1/1 94/162 
f 159/229 7/14 4/9 152/222 
f 166/236 10/19 7/14 159/229 
f 173/243 13/24 10/19 166/236 
f 180/250 16/29 13/24 173/243 
f 187/257 19/34 16/29 180/250 
f 194/264 22/39 19/34 187/257 
f 28/52 25/44 22/39 194/264 
f 358/540 109/179 360/545 
f 340/508 105/175 338/503 
f 391/600 393/602 394/604 
f 381/583 100/170 382/585 
f 213/295 214/296 219/304 
f 228/319 226/316 227/318 
f 21/37 197/269 196/267 18/32 
f 125/195 201/275 202/277 132/202 
f 24/42 198/271 197/268 21/37 
f 132/202 202/276 203/279 139/209 
f 27/49 199/272 198/270 24/42 
f 30/55 200/273 199/272 27/49 
f 139/209 203/278 200/273 30/55 
f 15/27 195/265 201/274 125/195 
f 18/32 196/266 195/265 15/27 
f 138/208 211/292 210/290 131/201 
f 60/106 208/287 207/285 57/101 
f 145/215 212/294 211/291 138/208 
f 57/101 207/284 206/283 54/96 
f 48/85 204/280 212/293 145/215 
f 51/91 205/281 204/280 48/85 
f 54/96 206/282 205/281 51/91 
f 131/201 210/289 209/288 63/110 
f 63/110 209/288 208/286 60/106 
f 197/269 215/299 214/297 196/267 
f 201/275 219/305 220/307 202/277 
f 198/271 216/301 215/298 197/268 
f 202/276 220/306 221/309 203/279 
f 199/272 217/302 216/300 198/270 
f 200/273 218/303 217/302 199/272 
f 203/278 221/308 218/303 200/273 
f 195/265 213/295 219/304 201/274 
f 196/266 214/296 213/295 195/265 
f 211/292 229/322 228/320 210/290 
f 208/287 226/317 225/315 207/285 
f 212/294 230/324 229/321 211/291 
f 207/284 225/314 224/313 206/283 
f 204/280 222/310 230/323 212/293 
f 205/281 223/311 222/310 204/280 
f 206/282 224/312 223/311 205/281 
f 210/289 228/319 227/318 209/288 
f 209/288 227/318 226/316 208/286 
f 6/12 232/327 231/325 3/6 
f 96/165 236/334 237/336 97/167 
f 3/6 231/325 236/334 96/165 
f 9/17 233/329 232/326 6/12 
f 97/167 237/335 238/338 104/174 
f 12/22 234/331 233/328 9/17 
f 104/174 238/337 239/340 111/181 
f 15/27 235/333 234/330 12/22 
f 111/181 239/339 240/342 118/188 
f 125/195 241/343 235/332 15/27 
f 118/188 240/341 241/343 125/195 
f 103/173 248/355 247/353 78/135 
f 75/130 246/352 245/351 72/124 
f 78/135 247/353 246/352 75/130 
f 110/180 249/357 248/354 103/173 
f 72/124 245/350 244/349 69/119 
f 117/187 250/359 249/356 110/180 
f 69/119 244/348 243/347 66/114 
f 124/194 251/361 250/358 117/187 
f 66/114 243/346 242/345 63/110 
f 131/201 252/362 251/360 124/194 
f 63/110 242/344 252/362 131/201 
f 232/327 254/365 253/363 231/325 
f 236/334 258/372 259/374 237/336 
f 231/325 253/363 258/372 236/334 
f 233/329 255/367 254/364 232/326 
f 237/335 259/373 260/376 238/338 
f 234/331 256/369 255/366 233/328 
f 238/337 260/375 261/378 239/340 
f 235/333 257/371 256/368 234/330 
f 239/339 261/377 262/380 240/342 
f 241/343 263/381 257/370 235/332 
f 240/341 262/379 263/381 241/343 
f 248/355 270/393 269/391 247/353 
f 246/352 268/390 267/389 245/351 
f 247/353 269/391 268/390 246/352 
f 249/357 271/395 270/392 248/354 
f 245/350 267/388 266/387 244/349 
f 250/359 272/397 271/394 249/356 
f 244/348 266/386 265/385 243/347 
f 251/361 273/399 272/396 250/358 
f 243/346 265/384 264/383 242/345 
f 252/362 274/400 273/398 251/360 
f 242/344 264/382 274/400 252/362 
f 97/167 277/404 276/402 96/165 
f 93/160 275/401 278/406 98/168 
f 96/165 276/402 275/401 93/160 
f 104/174 279/407 277/403 97/167 
f 98/168 278/405 279/407 104/174 
f 102/172 282/411 281/409 81/140 
f 78/135 280/408 283/413 103/173 
f 81/140 281/409 280/408 78/135 
f 110/180 284/414 282/410 102/172 
f 103/173 283/412 284/414 110/180 
f 277/404 287/418 286/416 276/402 
f 275/401 285/415 288/420 278/406 
f 276/402 286/416 285/415 275/401 
f 279/407 289/421 287/417 277/403 
f 278/405 288/419 289/421 279/407 
f 282/411 292/425 291/423 281/409 
f 280/408 290/422 293/427 283/413 
f 281/409 291/423 290/422 280/408 
f 284/414 294/428 292/424 282/410 
f 283/412 293/426 294/428 284/414 
f 111/181 304/444 302/440 104/174 
f 118/188 306/448 304/443 111/181 
f 125/195 308/452 306/447 118/188 
f 132/202 310/456 308/451 125/195 
f 139/209 312/460 310/455 132/202 
f 30/55 295/429 312/459 139/209 
f 33/60 296/431 295/429 30/55 
f 98/168 300/436 299/434 93/160 
f 90/155 298/433 301/438 99/169 
f 93/160 299/434 298/433 90/155 
f 99/169 301/437 303/442 106/176 
f 106/176 303/441 305/446 113/183 
f 113/183 305/445 307/450 120/190 
f 120/190 307/449 309/454 127/197 
f 127/197 309/453 311/458 134/204 
f 134/204 311/457 313/462 141/211 
f 36/65 297/432 296/430 33/60 
f 141/211 313/461 297/432 36/65 
f 104/174 302/439 300/435 98/168 
f 101/171 319/470 318/468 84/145 
f 81/140 317/467 320/472 102/172 
f 84/145 318/468 317/467 81/140 
f 108/178 321/474 319/469 101/171 
f 115/185 323/478 321/473 108/178 
f 122/192 325/482 323/477 115/185 
f 129/199 327/486 325/481 122/192 
f 136/206 329/490 327/485 129/199 
f 143/213 331/494 329/489 136/206 
f 42/75 314/463 331/493 143/213 
f 45/80 315/465 314/463 42/75 
f 110/180 322/476 324/480 117/187 
f 117/187 324/479 326/484 124/194 
f 124/194 326/483 328/488 131/201 
f 131/201 328/487 330/492 138/208 
f 138/208 330/491 332/496 145/215 
f 48/85 316/466 315/464 45/80 
f 145/215 332/495 316/466 48/85 
f 102/172 320/471 322/475 110/180 
f 304/444 342/513 340/509 302/440 
f 306/448 344/517 342/512 304/443 
f 308/452 346/521 344/516 306/447 
f 310/456 348/525 346/520 308/451 
f 312/460 350/529 348/524 310/455 
f 295/429 333/497 350/528 312/459 
f 296/431 334/498 333/497 295/429 
f 300/436 338/504 337/502 299/434 
f 298/433 336/501 339/507 301/438 
f 299/434 337/502 336/501 298/433 
f 301/437 339/506 341/511 303/442 
f 303/441 341/510 343/515 305/446 
f 305/445 343/514 345/519 307/450 
f 307/449 345/518 347/523 309/454 
f 309/453 347/522 349/527 311/458 
f 311/457 349/526 351/531 313/462 
f 297/432 335/500 334/499 296/430 
f 313/461 351/530 335/500 297/432 
f 302/439 340/508 338/503 300/435 
f 319/470 357/539 356/537 318/468 
f 317/467 355/536 358/541 320/472 
f 318/468 356/537 355/536 317/467 
f 321/474 359/544 357/538 319/469 
f 323/478 361/548 359/543 321/473 
f 325/482 363/552 361/547 323/477 
f 327/486 365/556 363/551 325/481 
f 329/490 367/560 365/555 327/485 
f 331/494 369/564 367/559 329/489 
f 314/463 352/532 369/563 331/493 
f 315/465 353/534 352/532 314/463 
f 322/476 360/546 362/550 324/480 
f 324/479 362/549 364/554 326/484 
f 326/483 364/553 366/558 328/488 
f 328/487 366/557 368/562 330/492 
f 330/491 368/561 370/566 332/496 
f 316/466 354/535 353/533 315/464 
f 332/495 370/565 354/535 316/466 
f 320/471 358/540 360/545 322/475 
f 99/169 374/572 373/570 90/155 
f 90/155 373/570 372/569 87/150 
f 107/177 376/576 374/571 99/169 
f 84/145 371/567 375/574 101/171 
f 87/150 372/568 371/567 84/145 
f 101/171 375/573 376/575 107/177 
f 374/572 380/582 379/580 373/570 
f 373/570 379/580 378/579 372/569 
f 376/576 382/586 380/581 374/571 
f 371/567 377/577 381/584 375/574 
f 372/568 378/578 377/577 371/567 
f 375/573 381/583 382/585 376/575 
f 396/611 397/613 394/606 
f 398/615 395/609 394/605 
f 113/183 388/595 385/590 106/176 
f 107/177 386/591 384/588 101/171 
f 101/171 384/588 387/593 108/178 
f 115/185 390/599 389/597 114/184 
f 99/169 383/587 386/591 107/177 
f 106/176 385/589 383/587 99/169 
f 114/184 389/596 388/594 113/183 
f 108/178 387/592 390/598 115/185 
f 388/595 396/612 393/603 385/590 
f 386/591 394/604 392/601 384/588 
f 384/588 392/601 395/610 387/593 
f 390/599 398/616 397/614 389/597 
f 383/587 391/600 394/604 386/591 
f 385/589 393/602 391/600 383/587 
f 389/596 397/613 396/611 388/594 
f 387/592 395/609 398/615 390/598 
f 120/190 402/620 399/617 113/183 
f 113/183 399/617 400/618 114/184 
f 114/184 400/618 401/619 121/191 
f 121/191 401/619 402/620 120/190 
f 127/197 406/624 403/621 120/190 
f 120/190 403/621 404/622 121/191 
f 121/191 404/622 405/623 128/198 
f 128/198 405/623 406/624 127/197 
f 134/204 410/628 407/625 127/197 
f 127/197 407/625 408/626 128/198 
f 128/198 408/626 409/627 135/205 
f 135/205 409/627 410/628 134/204 
f 141/211 414/632 411/629 134/204 
f 134/204 411/629 412/630 135/205 
f 135/205 412/630 413/631 142/212 
f 142/212 413/631 414/632 141/211 
f 36/65 418/636 415/633 141/211 
f 141/211 415/633 416/634 142/212 
f 142/212 416/634 417/635 39/70 
f 39/70 417/635 418/636 36/65 
f 121/191 422/640 419/637 114/184 
f 114/184 419/637 420/638 115/185 
f 115/185 420/638 421/639 122/192 
f 122/192 421/639 422/640 121/191 
f 128/198 426/644 423/641 121/191 
f 121/191 423/641 424/642 122/192 
f 122/192 424/642 425/643 129/199 
f 129/199 425/643 426/644 128/198 
f 135/205 430/648 427/645 128/198 
f 128/198 427/645 428/646 129/199 
f 129/199 428/646 429/647 136/206 
f 136/206 429/647 430/648 135/205 
f 142/212 434/652 431/649 135/205 
f 135/205 431/649 432/650 136/206 
f 136/206 432/650 433/651 143/213 
f 143/213 433/651 434/652 142/212 
f 39/70 438/656 435/653 142/212 
f 142/212 435/653 436/654 143/213 
f 143/213 436/654 437/655 42/75 
f 42/75 437/655 438/656 39/70 
f 402/620 442/660 439/657 399/617 
f 401/619 441/659 442/660 402/620 
f 400/618 440/658 441/659 401/619 
f 399/617 439/657 440/658 400/618 
f 406/624 446/664 443/661 403/621 
f 405/623 445/663 446/664 406/624 
f 404/622 444/662 445/663 405/623 
f 403/621 443/661 444/662 404/622 
f 410/628 450/668 447/665 407/625 
f 409/627 449/667 450/668 410/628 
f 408/626 448/666 449/667 409/627 
f 407/625 447/665 448/666 408/626 
f 414/632 454/672 451/669 411/629 
f 413/631 453/671 454/672 414/632 
f 412/630 452/670 453/671 413/631 
f 411/629 451/669 452/670 412/630 
f 418/636 458/676 455/673 415/633 
f 417/635 457/675 458/676 418/636 
f 416/634 456/674 457/675 417/635 
f 415/633 455/673 456/674 416/634 
f 422/640 462/680 459/677 419/637 
f 421/639 461/679 462/680 422/640 
f 420/638 460/678 461/679 421/639 
f 419/637 459/677 460/678 420/638 
f 426/644 466/684 463/681 423/641 
f 425/643 465/683 466/684 426/644 
f 424/642 464/682 465/683 425/643 
f 423/641 463/681 464/682 424/642 
f 430/648 470/688 467/685 427/645 
f 429/647 469/687 470/688 430/648 
f 428/646 468/686 469/687 429/647 
f 427/645 467/685 468/686 428/646 
f 434/652 474/692 471/689 431/649 
f 433/651 473/691 474/692 434/652 
f 432/650 472/690 473/691 433/651 
f 431/649 471/689 472/690 432/650 
f 438/656 478/696 475/693 435/653 
f 437/655 477/695 478/696 438/656 
f 436/654 476/694 477/695 437/655 
f 435/653 475/693 476/694 436/654 
f 346/521 486/708 485/706 344/516 
f 119/189 479/697 480/699 126/196 
f 344/516 485/706 479/697 119/189 
f 348/525 487/710 486/707 346/520 
f 126/196 480/698 481/701 133/203 
f 350/529 488/712 487/709 348/524 
f 133/203 481/700 482/703 140/210 
f 333/497 483/704 488/711 350/528 
f 334/498 484/705 483/704 333/497 
f 140/210 482/702 484/705 334/498 
f 130/200 490/715 489/713 123/193 
f 364/553 495/722 496/724 366/558 
f 123/193 489/713 495/722 364/553 
f 137/207 491/717 490/714 130/200 
f 366/557 496/723 497/726 368/562 
f 144/214 492/719 491/716 137/207 
f 368/561 497/725 498/728 370/566 
f 353/533 493/720 492/718 144/214 
f 354/535 494/721 493/720 353/533 
f 370/565 498/727 494/721 354/535 
f 486/708 506/740 505/738 485/706 
f 479/697 499/729 500/731 480/699 
f 485/706 505/738 499/729 479/697 
f 487/710 507/742 506/739 486/707 
f 480/698 500/730 501/733 481/701 
f 488/712 508/744 507/741 487/709 
f 481/700 501/732 502/735 482/703 
f 483/704 503/736 508/743 488/711 
f 484/705 504/737 503/736 483/704 
f 482/702 502/734 504/737 484/705 
f 490/715 510/747 509/745 489/713 
f 495/722 515/754 516/756 496/724 
f 489/713 509/745 515/754 495/722 
f 491/717 511/749 510/746 490/714 
f 496/723 516/755 517/758 497/726 
f 492/719 512/751 511/748 491/716 
f 497/725 517/757 518/760 498/728 
f 493/720 513/752 512/750 492/718 
f 494/721 514/753 513/752 493/720 
f 498/727 518/759 514/753 494/721 

